../../otp_src_R15B02/bin/erlc +native +"{hipe, [o3]}" bench.erl
../../otp_src_R15B02/bin/erl -smp enable -noshell -run bench main
Some number crunching to compare HiPE native compilers.

Benchmarking crunch(8000000, 8001000)
	 Range: 2177 - 3291 microseconds
	 Median: 2242 microseconds
	 Average: 2255 microseconds
Benchmarking pythagorean_triplets(100)
	 Range: 10209 - 11467 microseconds
	 Median: 10673 microseconds
	 Average: 10700 microseconds
Benchmarking naive_fib(33)
	 Range: 98204 - 109458 microseconds
	 Median: 99109 microseconds
	 Average: 99868 microseconds

